		<record>
			<header>
				<identifier>oai:esbirky.cz:MMP~publikacePredmetu~HK000644</identifier>
				<datestamp>2021-11-11T10:26:31Z</datestamp>
				<setSpec>publikacePredmetu</setSpec>
				<setSpec>publikacePredmetu:S</setSpec>
				<setSpec>publikacePredmetu:S:2</setSpec>
				<setSpec>publikacePredmetu:S:2:TI</setSpec>
			</header>
			<metadata>
				<europeana:record
					xmlns="" xsi:schemaLocation="http://www.europeana.eu/schemas/ese/ http://www.europeana.eu/schemas/ese/ESE-V3.4.xsd">
					<dc:title>Divadelní cedule Zpovědník</dc:title>
					<dc:description>Divadelní cedule zvoucí do Národního divadla na drama v osmi obrazech - Zpovědník od Franka Tetauera. Režie - A. Podhorský, výprava - V. Hofman, hudba - M. Ponc.</dc:description>
					<dc:coverage>Praha</dc:coverage>
					<dcterms:spatial>Hlavní město Praha</dcterms:spatial>
					<dc:relation>Historické sbírky</dc:relation>
					<dc:identifier>H175364</dc:identifier>
					<dc:date/>
					<dc:date/>
					<dc:date>1901-1-1</dc:date>
					<dcterms:temporal>20. století</dcterms:temporal>
					<dcterms:created>1901-1-1</dcterms:created>
					<dc:rights>http://www.europeana.eu/rights/rr-f/</dc:rights>
					<dcterms:extent>295 x 210 mm</dcterms:extent>
					<dcterms:medium>Papír</dcterms:medium>
					<europeana:provider>eSbírky</europeana:provider>
					<europeana:dataProvider>Muzeum hlavního města Prahy</europeana:dataProvider>
					<europeana:isShownBy>https://www.esbirky.cz/img.php?id=40195580</europeana:isShownBy>
					<europeana:isShownAt>https://www.esbirky.cz/detail/39861852</europeana:isShownAt>
					<europeana:rights>http://rightsstatements.org/vocab/InC/1.0/</europeana:rights>
					<europeana:type>IMAGE</europeana:type>
				</europeana:record>
			</metadata>
		</record>
		<record>
			<header>
				<identifier>oai:esbirky.cz:MMP~publikacePredmetu~HK000645</identifier>
				<datestamp>2021-11-11T10:30:26Z</datestamp>
				<setSpec>publikacePredmetu</setSpec>
				<setSpec>publikacePredmetu:S</setSpec>
				<setSpec>publikacePredmetu:S:2</setSpec>
				<setSpec>publikacePredmetu:S:2:TI</setSpec>
			</header>
			<metadata>
				<europeana:record
					xmlns="" xsi:schemaLocation="http://www.europeana.eu/schemas/ese/ http://www.europeana.eu/schemas/ese/ESE-V3.4.xsd">
					<dc:title>Divadelní cedule Spáč</dc:title>
					<dc:description>Divadelní cedule zvoucí do Národního divadla na komedii o třech dějstvích a šesti obrazech - Spáč od Ludwiga Holberga. Režie - A. Podhorský, výprava - V. Gottlieb, hudba M. Ponc.</dc:description>
					<dc:coverage>Praha</dc:coverage>
					<dcterms:spatial>Hlavní město Praha</dcterms:spatial>
					<dc:relation>Historické sbírky</dc:relation>
					<dc:identifier>H175365</dc:identifier>
					<dc:date/>
					<dc:date/>
					<dc:date>1901-1-1</dc:date>
					<dcterms:temporal>20. století</dcterms:temporal>
					<dcterms:created>1901-1-1</dcterms:created>
					<dc:rights>http://www.europeana.eu/rights/rr-f/</dc:rights>
					<dcterms:extent>295 x 210 mm</dcterms:extent>
					<dcterms:medium>Papír</dcterms:medium>
					<europeana:provider>eSbírky</europeana:provider>
					<europeana:dataProvider>Muzeum hlavního města Prahy</europeana:dataProvider>
					<europeana:isShownBy>https://www.esbirky.cz/img.php?id=40195590</europeana:isShownBy>
					<europeana:isShownAt>https://www.esbirky.cz/detail/39861870</europeana:isShownAt>
					<europeana:rights>http://rightsstatements.org/vocab/InC/1.0/</europeana:rights>
					<europeana:type>IMAGE</europeana:type>
				</europeana:record>
			</metadata>
		</record>
		<record>
			<header>
				<identifier>oai:esbirky.cz:MMP~publikacePredmetu~HK000646</identifier>
				<datestamp>2021-11-11T10:34:35Z</datestamp>
				<setSpec>publikacePredmetu</setSpec>
				<setSpec>publikacePredmetu:S</setSpec>
				<setSpec>publikacePredmetu:S:2</setSpec>
				<setSpec>publikacePredmetu:S:2:TI</setSpec>
			</header>
			<metadata>
				<europeana:record
					xmlns="" xsi:schemaLocation="http://www.europeana.eu/schemas/ese/ http://www.europeana.eu/schemas/ese/ESE-V3.4.xsd">
					<dc:title>Divadelní cedule Bludný Holanďan</dc:title>
					<dc:description>Divadelní cedule zvoucí do Národního divadla na romantickou operu o třech dějstvích - Bludný Holanďan od Richarda Wagnera. Režie - J. Muclinger, dirigent - J. Charvát. Cedule je součástí periodika Národního divadla, čísla 9, ročníku XI. z roku 1933.</dc:description>
					<dc:coverage>Praha</dc:coverage>
					<dcterms:spatial>Hlavní město Praha</dcterms:spatial>
					<dc:relation>Historické sbírky</dc:relation>
					<dc:identifier>H175382</dc:identifier>
					<dc:date/>
					<dc:date/>
					<dc:date>1901-1-1</dc:date>
					<dcterms:temporal>20. století</dcterms:temporal>
					<dcterms:created>1901-1-1</dcterms:created>
					<dc:rights>http://www.europeana.eu/rights/rr-f/</dc:rights>
					<dcterms:extent>295 x 210 mm</dcterms:extent>
					<dcterms:medium>Papír</dcterms:medium>
					<europeana:provider>eSbírky</europeana:provider>
					<europeana:dataProvider>Muzeum hlavního města Prahy</europeana:dataProvider>
					<europeana:isShownBy>https://www.esbirky.cz/img.php?id=40195597</europeana:isShownBy>
					<europeana:isShownAt>https://www.esbirky.cz/detail/39861888</europeana:isShownAt>
					<europeana:rights>http://rightsstatements.org/vocab/InC/1.0/</europeana:rights>
					<europeana:type>IMAGE</europeana:type>
				</europeana:record>
			</metadata>
		</record>
		<record>
			<header>
				<identifier>oai:esbirky.cz:MMP~publikacePredmetu~HK000647</identifier>
				<datestamp>2021-11-11T10:39:30Z</datestamp>
				<setSpec>publikacePredmetu</setSpec>
				<setSpec>publikacePredmetu:S</setSpec>
				<setSpec>publikacePredmetu:S:2</setSpec>
				<setSpec>publikacePredmetu:S:2:TR</setSpec>
				<setSpec>publikacePredmetu:S:2:TR:DIV</setSpec>
			</header>
			<metadata>
				<europeana:record
					xmlns="" xsi:schemaLocation="http://www.europeana.eu/schemas/ese/ http://www.europeana.eu/schemas/ese/ESE-V3.4.xsd">
					<dc:title>Divadelní cedule Dejte mi čamaru</dc:title>
					<dc:description>Divadelní cedule zvoucí do Letního divadla na hradbách na veselohru ve třech jednáních - Dejte mi čamaru od Josefa Jiřího Kolára. Datum konání - 28. září 1869. Ceduli orámovanou grafickým ornamentem vytiskl Steinhauser a Novák v Praze.</dc:description>
					<dc:coverage>Praha</dc:coverage>
					<dcterms:spatial>Hlavní město Praha</dcterms:spatial>
					<dc:relation>Historické sbírky</dc:relation>
					<dc:identifier>H183818</dc:identifier>
					<dc:date/>
					<dc:date/>
					<dc:date>1801-1-1</dc:date>
					<dcterms:temporal>19. století</dcterms:temporal>
					<dcterms:created>1801-1-1</dcterms:created>
					<dc:rights>http://www.europeana.eu/rights/rr-f/</dc:rights>
					<dcterms:extent>210 x 161mm</dcterms:extent>
					<dcterms:medium>Papír</dcterms:medium>
					<europeana:provider>eSbírky</europeana:provider>
					<europeana:dataProvider>Muzeum hlavního města Prahy</europeana:dataProvider>
					<europeana:isShownBy>https://www.esbirky.cz/img.php?id=40195607</europeana:isShownBy>
					<europeana:isShownAt>https://www.esbirky.cz/detail/39861906</europeana:isShownAt>
					<europeana:rights>http://rightsstatements.org/vocab/InC/1.0/</europeana:rights>
					<europeana:type>IMAGE</europeana:type>
				</europeana:record>
			</metadata>
		</record>
		<record>
			<header>
				<identifier>oai:esbirky.cz:MMP~publikacePredmetu~HK000648</identifier>
				<datestamp>2021-11-11T12:03:04Z</datestamp>
				<setSpec>publikacePredmetu</setSpec>
				<setSpec>publikacePredmetu:S</setSpec>
				<setSpec>publikacePredmetu:S:2</setSpec>
				<setSpec>publikacePredmetu:S:2:TR</setSpec>
				<setSpec>publikacePredmetu:S:2:TR:DIV</setSpec>
			</header>
			<metadata>
				<europeana:record
					xmlns="" xsi:schemaLocation="http://www.europeana.eu/schemas/ese/ http://www.europeana.eu/schemas/ese/ESE-V3.4.xsd">
					<dc:title>Divadelní cedule Der Weinachtsbaum</dc:title>
					<dc:description>Divadelní cedule zvoucí v německém jazyce do Novoměstkého divadla na férie v třech jednáních - Der Weinachtsbaum od Alberta Vanloo a Mortiera. Hudba - Louise Roth, režie - Edmund Kreibich, scéna - R. Holzer, Svoboda, kostýmy - A. Grevin, Draner, Marre. Ceduli vytiskl Steinhauser a Novák v Praze.</dc:description>
					<dc:coverage>Praha</dc:coverage>
					<dcterms:spatial>Hlavní město Praha</dcterms:spatial>
					<dc:relation>Historické sbírky</dc:relation>
					<dc:identifier>H204482</dc:identifier>
					<dc:date/>
					<dc:date/>
					<dc:date>1801-1-1</dc:date>
					<dcterms:temporal>19. století</dcterms:temporal>
					<dcterms:created>1801-1-1</dcterms:created>
					<dc:rights>http://www.europeana.eu/rights/rr-f/</dc:rights>
					<dcterms:extent>315 x 240 mm</dcterms:extent>
					<dcterms:medium>Papír</dcterms:medium>
					<europeana:provider>eSbírky</europeana:provider>
					<europeana:dataProvider>Muzeum hlavního města Prahy</europeana:dataProvider>
					<europeana:isShownBy>https://www.esbirky.cz/img.php?id=40198860</europeana:isShownBy>
					<europeana:isShownAt>https://www.esbirky.cz/detail/40198767</europeana:isShownAt>
					<europeana:rights>http://rightsstatements.org/vocab/InC/1.0/</europeana:rights>
					<europeana:type>IMAGE</europeana:type>
				</europeana:record>
			</metadata>
		</record>
		<record>
			<header>
				<identifier>oai:esbirky.cz:MMP~publikacePredmetu~HK000649</identifier>
				<datestamp>2021-11-11T12:07:06Z</datestamp>
				<setSpec>publikacePredmetu</setSpec>
				<setSpec>publikacePredmetu:S</setSpec>
				<setSpec>publikacePredmetu:S:2</setSpec>
				<setSpec>publikacePredmetu:S:2:TR</setSpec>
				<setSpec>publikacePredmetu:S:2:TR:T</setSpec>
			</header>
			<metadata>
				<europeana:record
					xmlns="" xsi:schemaLocation="http://www.europeana.eu/schemas/ese/ http://www.europeana.eu/schemas/ese/ESE-V3.4.xsd">
					<dc:title>Divadelní cedule Veronika</dc:title>
					<dc:description>Divadelní cedule zvoucí do Prozatímního divadla v Karlíně na premiéru dramatu s hudbou o čtyřech obrazech - Veronika od Dalibora C. Faltise. Inscenátoři: J. Frejka, J. Trnka, V. Černý. Premiéra byla uvedena 14. listopadu 1941. Na rubu vytištěn text P. Tučného "Lidový projev výtvarný" k výstavě v Národním divadle a reklama.</dc:description>
					<dc:coverage>Praha</dc:coverage>
					<dcterms:spatial>Hlavní město Praha</dcterms:spatial>
					<dc:relation>Historické sbírky</dc:relation>
					<dc:identifier>H213134</dc:identifier>
					<dc:date/>
					<dc:date/>
					<dc:date>1901-1-1</dc:date>
					<dcterms:temporal>20. století</dcterms:temporal>
					<dcterms:created>1901-1-1</dcterms:created>
					<dc:rights>http://www.europeana.eu/rights/rr-f/</dc:rights>
					<dcterms:extent>295 x 215 mm</dcterms:extent>
					<dcterms:medium>Papír</dcterms:medium>
					<europeana:provider>eSbírky</europeana:provider>
					<europeana:dataProvider>Muzeum hlavního města Prahy</europeana:dataProvider>
					<europeana:isShownBy>https://www.esbirky.cz/img.php?id=40198867</europeana:isShownBy>
					<europeana:isShownAt>https://www.esbirky.cz/detail/40198785</europeana:isShownAt>
					<europeana:rights>http://rightsstatements.org/vocab/InC/1.0/</europeana:rights>
					<europeana:type>IMAGE</europeana:type>
				</europeana:record>
			</metadata>
		</record>
		<record>
			<header>
				<identifier>oai:esbirky.cz:MMP~publikacePredmetu~HK000650</identifier>
				<datestamp>2021-11-11T12:11:00Z</datestamp>
				<setSpec>publikacePredmetu</setSpec>
				<setSpec>publikacePredmetu:S</setSpec>
				<setSpec>publikacePredmetu:S:2</setSpec>
				<setSpec>publikacePredmetu:S:2:TR</setSpec>
				<setSpec>publikacePredmetu:S:2:TR:T</setSpec>
			</header>
			<metadata>
				<europeana:record
					xmlns="" xsi:schemaLocation="http://www.europeana.eu/schemas/ese/ http://www.europeana.eu/schemas/ese/ESE-V3.4.xsd">
					<dc:title>Divadelní cedule Lišák Pseudolus</dc:title>
					<dc:description>Divadelní cedule zvoucí do Prozatimního divadla v Karlíně na komedii o šesti scénách - Lišák Pseudolus od T. Maccia Plauta. Inscenátoři: J. Frejka, J. Trnka, M. Ponc, J. Jenčík, D. Vondrová. Cedule pochází nejspíše z roku 1942, hra byla uváděná v letech 1942-1945. Na rubu cedule je vytištěn text ke hře a reklama.</dc:description>
					<dc:coverage>Praha</dc:coverage>
					<dcterms:spatial>Hlavní město Praha</dcterms:spatial>
					<dc:relation>Historické sbírky</dc:relation>
					<dc:identifier>H213140</dc:identifier>
					<dc:date/>
					<dc:date/>
					<dc:date>1901-1-1</dc:date>
					<dcterms:temporal>20. století</dcterms:temporal>
					<dcterms:created>1901-1-1</dcterms:created>
					<dc:rights>http://www.europeana.eu/rights/rr-f/</dc:rights>
					<dcterms:extent>295 x 215mm</dcterms:extent>
					<dcterms:medium>Papír</dcterms:medium>
					<europeana:provider>eSbírky</europeana:provider>
					<europeana:dataProvider>Muzeum hlavního města Prahy</europeana:dataProvider>
					<europeana:isShownBy>https://www.esbirky.cz/img.php?id=40198877</europeana:isShownBy>
					<europeana:isShownAt>https://www.esbirky.cz/detail/40198803</europeana:isShownAt>
					<europeana:rights>http://rightsstatements.org/vocab/InC/1.0/</europeana:rights>
					<europeana:type>IMAGE</europeana:type>
				</europeana:record>
			</metadata>
		</record>
		<record>
			<header>
				<identifier>oai:esbirky.cz:MMP~publikacePredmetu~HK000652</identifier>
				<datestamp>2021-11-11T12:31:33Z</datestamp>
				<setSpec>publikacePredmetu</setSpec>
				<setSpec>publikacePredmetu:S</setSpec>
				<setSpec>publikacePredmetu:S:2</setSpec>
				<setSpec>publikacePredmetu:S:2:TR</setSpec>
				<setSpec>publikacePredmetu:S:2:TR:DIV</setSpec>
			</header>
			<metadata>
				<europeana:record
					xmlns="" xsi:schemaLocation="http://www.europeana.eu/schemas/ese/ http://www.europeana.eu/schemas/ese/ESE-V3.4.xsd">
					<dc:title>Divadelní cedule Der Mönch von Berg Karmel</dc:title>
					<dc:description>Divadelní cedule zvoucí v německém jazyce do velkovévodského dvorního divadla na drama v pěti dějstvích - Der Mönch von Berg Karmel od Wolfganga Heriberta von Dalberga. Benefice madam Häuslerové. Provedeno Häuslerovou divadelní společností v blíže neurčeném velkovévodském dvorním divadle (v Mannheimu ?). Datum konání - 30. listopadu 1789. Červeno-černý text cedule s ornamentálním zdobením je vytištěna na hedvábí.</dc:description>
					<dc:coverage>Praha</dc:coverage>
					<dcterms:spatial>Hlavní město Praha</dcterms:spatial>
					<dc:relation>Historické sbírky</dc:relation>
					<dc:identifier>HV001434</dc:identifier>
					<dc:date/>
					<dc:date/>
					<dc:date>1701-1-1</dc:date>
					<dcterms:temporal>18. století</dcterms:temporal>
					<dcterms:created>1701-1-1</dcterms:created>
					<dc:rights>http://www.europeana.eu/rights/rr-f/</dc:rights>
					<dcterms:extent>? cm x ? cm</dcterms:extent>
					<dcterms:medium>Textil</dcterms:medium>
					<europeana:provider>eSbírky</europeana:provider>
					<europeana:dataProvider>Muzeum hlavního města Prahy</europeana:dataProvider>
					<europeana:isShownBy>https://www.esbirky.cz/img.php?id=40198928</europeana:isShownBy>
					<europeana:isShownAt>https://www.esbirky.cz/detail/40198839</europeana:isShownAt>
					<europeana:rights>http://rightsstatements.org/vocab/InC/1.0/</europeana:rights>
					<europeana:type>IMAGE</europeana:type>
				</europeana:record>
			</metadata>
		</record>
		<resumptionToken completeListSize="308" cursor="300"/>
	</ListRecords>
</OAI-PMH>
